<?xml version="1.0" standalone="no"?>
<!DOCTYPE svg PUBLIC "-//W3C//DTD SVG 1.1//EN" "http://www.w3.org/Graphics/SVG/1.1/DTD/svg11.dtd" >
<svg xmlns="http://www.w3.org/2000/svg">
<metadata>Generated by IcoMoon</metadata>
<defs>
<font id="compcon" horiz-adv-x="1024">
<font-face units-per-em="1024" ascent="960" descent="-64" />
<missing-glyph horiz-adv-x="1024" />
<glyph unicode="&#x20;" horiz-adv-x="512" d="" />
<glyph unicode="&#xe900;" glyph-name="accuracy" d="M512.032 789.323l-295.557-170.677v-341.354l295.557-170.677 295.557 170.677v341.354zM477.974 618.646h68.245v-136.619h136.619v-68.245h-136.619v-136.49h-68.245v136.49h-136.619v68.245h136.619z" />
<glyph unicode="&#xe901;" glyph-name="activate" d="M511.903 837.572l-389.474-389.474 24.124-24.253 365.35-365.608 389.861 389.861zM511.903 741.074l293.106-292.977-293.106-293.106-292.977 293.106zM443.787 604.197c-60.118-26.447-102.432-86.564-102.432-156.099 0-93.918 76.76-170.806 170.548-170.806 93.918 0 170.806 76.889 170.806 170.806 0 69.535-42.315 129.524-102.432 155.97v-79.985c20.899-18.706 34.187-45.54 34.187-75.986 0-57.021-45.54-102.561-102.561-102.561-56.892 0-102.303 45.54-102.303 102.561 0 30.446 13.288 57.408 34.187 75.986zM477.845 652.704v-204.606h68.374v204.606z" />
<glyph unicode="&#xe902;" glyph-name="range" d="M248.985 48.432l-136.619 136.49 48.249 48.249 136.619-136.49zM180.611 164.925l614.464 614.335 48.249-48.249-614.464-614.335zM482.876 525.373l106.431-106.56-48.249-48.249-106.431 106.56zM863.191 661.218l-136.619 136.49 48.249 48.249 136.619-136.49z" />
<glyph unicode="&#xe903;" glyph-name="burst" d="M887.573 447.968c0-101.271-43.992-199.446-110.044-265.498s-164.227-110.044-265.498-110.044c-101.271 0-199.446 43.992-265.498 110.044s-110.044 164.227-110.044 265.498c0 101.271 43.992 199.446 110.044 265.498s164.227 110.044 265.498 110.044c101.271 0 199.446-43.992 265.498-110.044s110.044-164.227 110.044-265.498zM729.281 665.217c-57.537 57.408-129.911 89.918-217.249 89.918s-159.712-32.51-217.249-89.918c-57.408-57.537-89.918-129.911-89.918-217.249s32.51-159.712 89.918-217.249c57.537-57.408 129.911-89.918 217.249-89.918s159.712 32.51 217.249 89.918c57.408 57.537 89.918 129.911 89.918 217.249s-32.51 159.712-89.918 217.249zM341.354 447.968l170.677 170.677 170.677-170.677-170.677-170.677z" />
<glyph unicode="&#xe904;" glyph-name="cone" d="M390.248 833.185c243.309-67.6 439.4-263.563 507-506.871l9.031-32.768-749.793-200.994 200.994 749.664zM252.984 189.050l568.924 152.487c-66.181 211.573-204.864 350.127-416.437 416.308z" />
<glyph unicode="&#xe905;" glyph-name="line" d="M674.452 755.265l-542.219-541.961 48.378-48.378 590.21 590.339zM819.199 706.887l-590.21-590.339 48.12-48.249 542.090 541.832zM580.277 789.194v-68.245h204.864v-204.606h68.245v272.851z" />
<glyph unicode="&#xe906;" glyph-name="corebonus" d="M375.412 447.968l136.619 136.619 136.49-136.619-136.49-136.49zM477.845 823.381v-88.241l-102.303-102.303-44.121 44.121-48.378-48.378 44.121-44.121-102.303-102.303h-88.241v-68.245h88.241l102.432-102.432-44.25-44.25 48.378-48.12 44.121 44.121 102.303-102.303v-88.499h68.245v88.241l102.561 102.561 44.121-44.121 48.12 48.12-44.121 44.121 102.432 102.561h88.37v68.245h-88.499l-102.303 102.432 44.121 43.992-48.12 48.378-44.121-44.121-102.561 102.561v87.983zM512.032 672.7l224.86-224.731-224.86-224.86-224.731 224.86z" />
<glyph unicode="&#xe907;" glyph-name="burn" d="M546.090 857.568c0 0-138.038-139.586-170.677-204.735-34.058-68.245-21.028-81.146-34.058-136.619-23.35-98.949-102.432-102.303-102.432-238.922 0-100.11 70.438-153.003 142.554-179.837-23.866 21.802-40.121 48.12-40.121 77.534 0 72.76 136.49 204.735 136.49 204.735s213.766-116.365 204.864-204.735c-2.064-20.254-11.224-40.379-23.995-58.828 65.923 33.929 126.299 87.209 126.299 161.131 0 204.864-102.303 307.296-102.303 307.296s36.122-139.973-34.187-136.619c-34.058 1.677-47.862 61.666-68.245 102.432-34.187 68.245-68.245 68.245-68.245 136.49 0 102.432 34.058 170.677 34.058 170.677z" />
<glyph unicode="&#xe908;" glyph-name="energy" d="M580.277 857.697l-341.354-477.974h273.109l-68.245-341.225 341.354 477.845h-273.109z" />
<glyph unicode="&#xe909;" glyph-name="explosive" d="M512.032 823.51l-54.699-246.147-150.165 75.47 75.47-150.165-246.147-54.57 246.147-54.699-75.47-150.165 150.165 75.47 54.699-246.147 54.57 246.147 150.165-75.47-75.47 150.165 246.147 54.699-246.147 54.57 75.47 150.165-150.165-75.47z" />
<glyph unicode="&#xe90a;" glyph-name="heat" d="M512.032 857.568c-56.763 0-102.432-45.669-102.432-102.303v-409.987c-42.96-32.123-68.245-82.565-68.245-136.232 0-94.176 76.373-170.677 170.677-170.677 94.176 0 170.677 76.502 170.677 170.677-0.129 53.667-25.415 104.109-68.245 136.232v409.987c0 56.634-45.798 102.303-102.432 102.303zM477.845 550.401h68.245v-244.986c40.895-14.449 68.245-53.022 68.374-96.369 0-56.505-45.927-102.432-102.432-102.432-56.634 0-102.432 45.927-102.432 102.432 0 43.347 27.35 81.92 68.245 96.369zM682.709 516.213h136.49v-68.245h-136.49v68.245zM682.709 686.891h136.49v-68.245h-136.49v68.245z" />
<glyph unicode="&#xe90b;" glyph-name="kinetic" d="M750.954 447.968c0-63.472-28.64-127.589-70.051-168.871-41.282-41.411-105.399-70.051-168.871-70.051s-127.589 28.64-168.871 70.051c-41.411 41.282-70.051 105.399-70.051 168.871s28.64 127.589 70.051 168.871c41.282 41.411 105.399 70.051 168.871 70.051s127.589-28.64 168.871-70.051c41.411-41.282 70.051-105.399 70.051-168.871zM632.654 568.591c-32.768 32.768-71.083 49.926-120.622 49.926s-87.854-17.158-120.622-49.926c-32.768-32.768-49.926-71.083-49.926-120.622s17.158-87.854 49.926-120.622c32.768-32.768 71.083-49.926 120.622-49.926s87.854 17.158 120.622 49.926c32.768 32.768 49.926 71.083 49.926 120.622s-17.158 87.854-49.926 120.622zM170.677 106.614c273.109 170.677 512.032 409.599 682.709 682.709-273.109-170.677-512.032-409.599-682.709-682.709z" />
<glyph unicode="&#xe90c;" glyph-name="variable" d="M374.638 213.69c0-55.788-44.59-101.013-99.594-101.013v0c-55.004 0-99.594 45.225-99.594 101.013v0c0 55.788 44.59 101.013 99.594 101.013v0c55.004 0 99.594-45.225 99.594-101.013v0zM850.548 686.891c0-55.788-44.59-101.013-99.594-101.013v0c-55.004 0-99.594 45.225-99.594 101.013v0c0 55.788 44.59 101.013 99.594 101.013v0c55.004 0 99.594-45.225 99.594-101.013v0zM611.626 447.968c0-55.788-44.59-101.013-99.594-101.013v0c-55.004 0-99.594 45.225-99.594 101.013v0c0 55.788 44.59 101.013 99.594 101.013v0c55.004 0 99.594-45.225 99.594-101.013v0z" />
<glyph unicode="&#xe90d;" glyph-name="deactivate" d="M512.032 837.572l-389.732-389.474 24.124-24.253 365.608-365.608 389.603 389.861zM477.845 652.704h68.245v-204.606h-68.245zM443.787 604.197v-80.114c-20.899-18.577-34.187-45.54-34.187-75.986 0-57.021 45.411-102.561 102.303-102.561 57.021 0 102.561 45.54 102.561 102.561 0 30.446-13.288 57.279-34.187 75.986v79.985c60.118-26.447 102.432-86.435 102.432-155.97 0-93.918-76.889-170.806-170.806-170.806-93.789 0-170.548 76.889-170.548 170.806 0 69.535 42.315 129.653 102.432 156.099z" />
<glyph unicode="&#xe90e;" glyph-name="difficulty" d="M512.032 789.323l-295.686-170.677v-341.354l295.686-170.677 295.557 170.677v341.354zM512.032 710.499l227.312-131.201v-262.531l-227.312-131.33-227.312 131.33v262.531zM682.709 413.781h-341.354v68.374h341.354z" />
<glyph unicode="&#xe90f;" glyph-name="frame" d="M477.587 106.614h-102.174v307.296h51.087v-68.374l51.087-34.058zM443.787 789.323l-34.187-68.245h-170.677v-68.245l136.49-34.187v-102.432l68.374-34.058 34.058-102.432h68.245l34.187 102.432 68.245 34.058v102.432l136.49 34.187v68.245h-170.677l-34.058 68.245zM512.032 721.078l68.245-68.245-68.245-68.245-68.245 68.245zM546.606 106.614h101.916v307.296h-51.087v-68.374l-50.829-34.058zM785.012 584.588l-68.245-17.158v-221.764l68.245 34.058zM238.922 584.588l68.245-17.158v-221.893l-68.245 34.187z" />
<glyph unicode="&#xe910;" glyph-name="melee" d="M853.386 789.323l-170.677-68.245-307.296-307.167 102.432-102.432 307.167 307.167zM602.208 562.527l24.253-24.253-170.548-170.548-24.124 24.124zM214.798 199.113l204.864 204.735 48.249-48.249-204.864-204.735zM365.479 472.093l170.677-170.677-48.249-48.249-170.677 170.677z" />
<glyph unicode="&#xe911;" glyph-name="overcharge" d="M610.852 653.22l194.286 28.64-71.212-183.191 143.715-134.168-187.577-58.44-15.352-195.963-162.679 110.173-162.679-110.173-15.352 195.963-187.706 58.44 143.715 134.168-71.341 183.191 194.544-28.64 98.82 169.774zM449.076 578.911l-124.105 18.319 45.54-116.881-91.853-85.661 119.848-37.283 9.676-125.008 103.851 70.438 103.851-70.438 9.676 125.008 119.719 37.283-91.595 85.661 45.411 116.881-124.105-18.319-62.956 108.366zM580.277 447.968c0-37.691-30.554-68.245-68.245-68.245v0c-37.691 0-68.245 30.554-68.245 68.245v0c0 37.691 30.554 68.245 68.245 68.245v0c37.691 0 68.245-30.554 68.245-68.245v0z" />
<glyph unicode="&#xe912;" glyph-name="pilot" d="M358.512 499.184v-37.283c-15.352-8.386-31.736-17.932-51.216-30.962-34.187-136.49-68.374-196.35-68.374-255.951 28.382-11.353 57.924-20.125 87.983-27.737l19.738 75.47c67.342-17.287 163.969-27.35 211.831-24.253l80.114-63.73c50.442 8.515 99.852 21.544 146.553 40.25 0 58.311-34.187 119.461-68.245 255.951-19.48 13.030-35.864 22.576-51.216 30.962v37.283h-39.347c-29.156-32.51-70.696-51.087-114.301-51.087s-85.145 18.577-114.301 51.087h-5.16zM614.464 396.365l68.245-68.374-68.245-68.245-68.245 68.245zM631.493 635.804c0-65.977-53.485-119.461-119.461-119.461v0c-65.977 0-119.461 53.485-119.461 119.461v0c0 65.977 53.485 119.461 119.461 119.461v0c65.977 0 119.461-53.485 119.461-119.461v0z" />
<glyph unicode="&#xe913;" glyph-name="thrown" d="M853.386 618.646c0-94.262-76.415-170.677-170.677-170.677v0c-94.262 0-170.677 76.415-170.677 170.677v0c0 94.262 76.415 170.677 170.677 170.677v0c94.262 0 170.677-76.415 170.677-170.677v0zM146.553 142.423l100.162 100.162 59.933-59.933-100.162-100.162-59.933 59.933zM273.99 269.86l100.162 100.162 59.933-59.933-100.162-100.162-59.933 59.933zM399.421 395.291l100.162 100.162 59.933-59.933-100.162-100.162-59.933 59.933z" />
<glyph unicode="&#xe914;" glyph-name="reactor" d="M853.386 447.968c0-91.853-40.121-181.385-99.981-241.373-59.989-59.86-149.52-99.981-241.373-99.981s-181.385 40.121-241.373 99.981c-59.86 59.989-99.981 149.52-99.981 241.373s40.121 181.385 99.981 241.373c59.989 59.86 149.52 99.981 241.373 99.981s181.385-40.121 241.373-99.981c59.86-59.989 99.981-149.52 99.981-241.373zM705.156 641.093c-51.345 51.216-115.333 79.856-193.125 79.856s-141.779-28.64-193.125-79.856c-51.216-51.345-79.856-115.333-79.856-193.125s28.64-141.779 79.856-193.125c51.345-51.216 115.333-79.856 193.125-79.856s141.779 28.64 193.125 79.856c51.216 51.345 79.856 115.333 79.856 193.125s-28.64 141.779-79.856 193.125zM614.335 447.968c0-36.509-19.48-70.309-51.216-88.499l51.216-88.886c63.472 36.638 102.432 104.238 102.432 177.386zM307.167 447.968c0-73.147 39.089-140.747 102.432-177.386l51.216 88.886c-31.607 18.19-51.216 51.99-51.216 88.499zM507.258 652.704c-34.316-0.774-67.987-10.192-97.659-27.35l51.216-88.757c15.61 9.031 33.155 13.804 51.216 13.804 17.932 0 35.606-4.773 51.087-13.804l51.216 88.757c-32.51 18.835-69.535 28.253-107.076 27.35zM546.219 447.968c0-18.881-15.306-34.187-34.187-34.187v0c-18.881 0-34.187 15.306-34.187 34.187v0c0 18.881 15.306 34.187 34.187 34.187v0c18.881 0 34.187-15.306 34.187-34.187v0zM578.471 447.968c0-15.997-9.16-36.767-19.48-46.959-10.192-10.321-30.962-19.48-46.959-19.48s-36.767 9.16-46.959 19.48c-10.321 10.192-19.48 30.962-19.48 46.959s9.16 36.767 19.48 46.959c10.192 10.321 30.962 19.48 46.959 19.48s36.767-9.16 46.959-19.48c10.321-10.192 19.48-30.962 19.48-46.959zM514.096 448.742c-0.258 0.129-0.387 0.387-0.645 0.645s-0.516 0.387-0.645 0.645c-0.129-0.129-0.387-0.129-0.774-0.129s-0.645 0-0.774 0.129c-0.129-0.258-0.387-0.387-0.645-0.645s-0.387-0.516-0.645-0.645c0.129-0.129 0.129-0.387 0.129-0.774s0-0.645-0.129-0.774c0.258-0.129 0.387-0.387 0.645-0.645s0.516-0.387 0.645-0.645c0.129 0.129 0.387 0.129 0.774 0.129s0.645 0 0.774-0.129c0.129 0.258 0.387 0.387 0.645 0.645s0.387 0.516 0.645 0.645c-0.129 0.129-0.129 0.387-0.129 0.774s0 0.645 0.129 0.774z" />
<glyph unicode="&#xe915;" glyph-name="repair" d="M217.636 253.812l136.49 136.619c34.187 34.058 34.187 136.49 68.245 170.677 34.187 34.058 67.471 42.702 136.619 34.058l-88.886-87.338 14.578-89.273 87.854-14.578 88.757 88.886c9.289-61.408 0-102.432-34.058-136.619-34.187-34.058-136.619-34.058-170.677-68.245l-81.146-78.953h-68.245zM841.775 638.384v-380.702l-329.744-190.415-329.744 190.415v380.702l329.744 190.415zM250.533 598.907v-301.878l261.499-150.939 261.499 150.939v301.878l-261.499 151.068z" />
<glyph unicode="&#xe916;" glyph-name="role-artillery" d="M477.845 789.323l-68.245-136.49-68.245-546.219h341.354l-68.374 546.219-68.245 136.49v-546.090h-68.245zM273.109 106.614l34.058 273.109-68.245-68.245-102.432-204.864zM750.954 106.614l-34.187 273.109 68.245-68.245 102.432-204.864z" />
<glyph unicode="&#xe917;" glyph-name="role-controller" d="M291.428 625.483c-91.337-44.25-154.809-137.78-154.809-245.76 0-150.423 122.686-273.109 273.109-273.109s272.851 122.686 272.851 273.109c0 106.947-62.053 199.575-151.842 244.341-18.964-14.707-33.284-33.671-42.186-55.086 74.050-30.833 125.654-103.722 125.654-189.254 0-113.527-90.95-204.864-204.477-204.864s-204.864 91.337-204.864 204.864c0 61.15 26.705 115.72 68.89 153.261 1.677 31.736 7.611 62.827 17.674 92.499zM614.206 789.452c-150.294 0-272.851-122.815-272.851-273.238 0-106.818 62.053-199.575 151.971-244.341 18.706 14.449 32.897 33.542 41.928 55.215-73.921 30.833-125.525 103.722-125.525 189.125 0 113.527 91.079 204.864 204.477 204.864 113.527 0 204.864-91.337 204.864-204.864 0-61.15-26.576-115.72-68.761-153.132-1.548-31.994-7.611-62.956-17.545-92.499 91.208 44.379 154.68 137.78 154.68 245.631 0 150.423-122.815 273.238-273.238 273.238z" />
<glyph unicode="&#xe918;" glyph-name="role-striker" d="M512.032 823.51l-102.432-204.864 68.245-68.245v-443.787l34.187-34.058 34.058 34.058v443.787l68.374 68.245zM846.936 651.93l-166.162-157.389 40.766-87.467-93.402-256.596 20.383-43.863 43.734 20.512 93.402 256.596 87.467 40.766zM176.999 651.93l-26.189-227.441 87.467-40.766 93.402-256.596 43.734-20.512 20.512 43.863-93.402 256.596 40.766 87.467z" />
<glyph unicode="&#xe919;" glyph-name="role-support" d="M156.615 427.972l355.416 355.416 355.416-355.416-96.498-96.498-258.918 258.918-258.918-258.918zM283.043 199.113l228.989 228.86 228.86-228.86-48.249-48.249-180.611 180.611-180.74-180.611z" />
<glyph unicode="&#xe91a;" glyph-name="role-tank" d="M512.032 823.51c0 0-170.677-102.432-307.296-102.432 0 0 10.192-184.481 34.187-273.109 22.705-83.597 49.926-169.903 102.432-238.922 44.121-57.924 102.432-102.432 170.677-136.49 68.245 34.058 126.557 78.566 170.677 136.49 52.377 69.019 79.727 155.325 102.303 238.922 23.995 88.628 34.187 273.109 34.187 273.109-136.49 0-307.167 102.432-307.167 102.432zM512.032 749.717c104.754-62.44 165.259-74.308 231.956-90.95-11.998-190.415-54.699-386.894-231.956-509.451z" />
<glyph unicode="&#xe91b;" glyph-name="size-1" d="M526.768 847.214l380.065-219.429v-438.857l-380.065-219.429-380.058 219.429v438.857zM489.611 425.326h147.471v33.426h-99.387l99.131 124.328v31.759h-144.772v-33.558h95.4l-97.843-122.529zM803.972 614.839h-138.986v-189.513h143.609v34.070h-104.909v48.728h92.058v32.914h-92.058v40.243h100.286zM426.737 425.326h39.344v189.513h-39.344zM245.065 483.825c0-19.712 7.073-35.211 21.219-46.482 14.139-11.271 33.558-16.903 58.244-16.903 24.166 0 42.876 5.72 56.123 17.167 13.239 11.44 19.858 25.819 19.858 43.132 0 16.889-5.654 29.784-16.969 38.7-7.285 5.742-18.088 10.328-32.402 13.758l-32.651 7.841c-12.603 2.999-20.831 5.617-24.686 7.841-6.005 3.343-9.004 8.404-9.004 15.177 0 7.365 3.043 13.115 9.128 17.225 6.085 4.118 14.226 6.173 24.43 6.173 9.172 0 16.845-1.587 23.011-4.762 9.26-4.798 14.234-12.895 14.914-24.298h38.064c-0.688 20.144-8.082 35.511-22.184 46.095-14.095 10.584-31.13 15.879-51.105 15.879-23.91 0-42.043-5.617-54.382-16.845-12.347-11.227-18.52-25.329-18.52-42.299 0-18.6 6.385-32.271 19.156-41.011 7.548-5.23 21.175-10.072 40.887-14.533l20.056-4.498c11.747-2.575 20.363-5.53 25.849-8.872 5.486-3.43 8.229-8.272 8.229-14.526 0-10.715-5.53-18.044-16.589-21.987-5.829-2.055-13.414-3.087-22.755-3.087-15.601 0-26.617 3.899-33.046 11.703-3.511 4.286-5.873 10.752-7.073 19.412zM515.65 290.582v-128.571h37.537v186.427h-30.471c0-1.631-0.468-4.111-1.412-7.453-1.631-5.573-4.030-10.028-7.197-13.378-4.63-4.879-10.635-8.141-18-9.765-4.63-1.031-12.734-1.807-24.305-2.319v-24.942z" />
<glyph unicode="&#xe921;" glyph-name="size-2" d="M730.448 346.734l2.282-1.317v-250.617l-217.037-125.301-217.037 125.301v250.617l0.234 0.571-217.037 125.301v250.617l217.037 125.308 215.135-124.211 215.135 124.211 217.037-125.308v-250.617zM232.324 483.825c0-19.712 7.073-35.211 21.219-46.482 14.139-11.271 33.558-16.903 58.244-16.903 24.166 0 42.876 5.72 56.115 17.167 13.246 11.44 19.866 25.819 19.866 43.132 0 16.889-5.654 29.784-16.969 38.7-7.285 5.742-18.088 10.328-32.402 13.758l-32.658 7.841c-12.595 2.999-20.824 5.617-24.686 7.841-5.998 3.343-8.997 8.404-8.997 15.177 0 7.365 3.043 13.115 9.128 17.225 6.085 4.118 14.226 6.173 24.43 6.173 9.172 0 16.845-1.587 23.011-4.762 9.26-4.798 14.234-12.895 14.914-24.298h38.056c-0.68 20.144-8.075 35.511-22.177 46.095s-31.137 15.879-51.105 15.879c-23.918 0-42.043-5.617-54.389-16.845-12.339-11.227-18.512-25.329-18.512-42.299 0-18.6 6.385-32.271 19.156-41.011 7.548-5.23 21.175-10.072 40.887-14.533l20.056-4.498c11.747-2.575 20.356-5.53 25.841-8.872 5.486-3.43 8.229-8.272 8.229-14.526 0-10.715-5.522-18.044-16.581-21.987-5.829-2.055-13.414-3.087-22.755-3.087-15.601 0-26.617 3.899-33.046 11.703-3.511 4.286-5.873 10.752-7.073 19.412zM413.996 425.326h39.344v189.513h-39.344zM476.869 425.326h147.471v33.426h-99.387l99.131 124.328v31.759h-144.772v-33.558h95.4l-97.843-122.529zM791.223 614.839h-138.986v-189.513h143.616v34.070h-104.916v48.728h92.058v32.914h-92.058v40.243h100.286zM576.702 162.011v32.271h-81.386c2.319 3.855 5.164 7.241 8.55 10.16 3.387 2.911 9.669 7.629 18.834 14.139l14.658 10.416c12.347 8.741 21.219 16.669 26.617 23.786 8.229 10.715 12.347 22.974 12.347 36.769 0 18-5.829 32.468-17.488 43.396s-27.341 16.391-47.060 16.391c-24.942 0-42.299-9.296-52.070-27.897-5.142-9.772-8.016-22.587-8.616-38.444h35.621c0.424 10.459 1.799 18.088 4.111 22.886 4.030 8.309 11.615 12.471 22.755 12.471 8.148 0 14.402-2.619 18.776-7.841 4.367-5.23 6.554-11.791 6.554-19.675 0-9.684-3.811-18.6-11.44-26.741-4.974-5.23-15.901-13.89-32.79-25.973-19.456-13.883-31.795-27.041-37.025-39.468-5.398-11.059-8.272-23.274-8.616-36.645z" />
<glyph unicode="&#xe927;" glyph-name="size-3" d="M693.299 700.401h169.355l84.677-146.666-84.677-146.666 84.677-146.951-84.677-146.666h-166.502l-83.251-144.201h-169.355l-83.975 145.452-1.456-2.509h-169.355l-84.677 146.666 84.173 145.796h-1.777l-84.677 146.666 84.677 146.666h169.34l-1.477 2.56 84.677 146.666h169.355zM242.871 483.825c0-19.712 7.066-35.211 21.211-46.482s33.558-16.903 58.244-16.903c24.174 0 42.876 5.72 56.123 17.167 13.239 11.44 19.866 25.819 19.866 43.132 0 16.889-5.661 29.784-16.976 38.7-7.285 5.742-18.081 10.328-32.395 13.758l-32.658 7.841c-12.603 2.999-20.831 5.617-24.686 7.841-6.005 3.343-9.004 8.404-9.004 15.177 0 7.365 3.043 13.115 9.128 17.225 6.085 4.118 14.234 6.173 24.43 6.173 9.172 0 16.845-1.587 23.018-4.762 9.253-4.798 14.226-12.895 14.914-24.298h38.056c-0.688 20.144-8.082 35.511-22.177 46.095-14.102 10.584-31.137 15.879-51.112 15.879-23.91 0-42.043-5.617-54.382-16.845-12.347-11.227-18.52-25.329-18.52-42.299 0-18.6 6.393-32.271 19.163-41.011 7.541-5.23 21.168-10.072 40.88-14.533l20.063-4.498c11.739-2.575 20.356-5.53 25.841-8.872 5.486-3.43 8.229-8.272 8.229-14.526 0-10.715-5.53-18.044-16.589-21.987-5.829-2.055-13.414-3.087-22.755-3.087-15.601 0-26.617 3.899-33.046 11.703-3.511 4.286-5.866 10.752-7.066 19.412zM424.536 425.326h39.344v189.513h-39.344zM487.409 425.326h147.471v33.426h-99.387l99.131 124.328v31.759h-144.772v-33.558h95.4l-97.843-122.529zM801.77 614.839h-138.986v-189.513h143.616v34.070h-104.916v48.728h92.058v32.914h-92.058v40.243h100.286zM458.291 219.224c0.6-14.826 3.599-26.829 8.997-36.001 10.284-17.225 28.628-25.841 55.033-25.841 21.424 0 37.603 5.976 48.53 17.935 10.935 11.959 16.399 25.819 16.399 41.596 0 14.994-4.674 26.829-14.014 35.482-6.261 5.742-11.059 8.616-14.402 8.616 4.454 1.712 8.741 4.93 12.859 9.64 6.51 7.548 9.772 16.801 9.772 27.772 0 15.514-5.464 27.882-16.399 37.098-10.928 9.209-25.307 13.817-43.132 13.817-9.604 0-17.701-1.156-24.298-3.467-6.605-2.319-12.303-5.661-17.101-10.035-6.429-6.166-11.147-12.895-14.146-20.18-2.831-8.316-4.411-17.101-4.754-26.361h34.202c-0.176 9.172 1.777 16.501 5.844 21.987 4.074 5.486 10.437 8.229 19.098 8.229 7.541 0 13.392-2.231 17.547-6.685s6.239-10.24 6.239-17.357c0-10.971-4.074-18.256-12.215-21.855-4.718-2.143-13.034-3.306-24.942-3.474v-26.229c12.171 0 21.080-1.156 26.741-3.467 9.94-4.118 14.914-12.303 14.914-24.561 0-9.26-2.677-16.347-8.038-21.277-5.354-4.93-11.637-7.395-18.834-7.395-11.739 0-19.844 4.498-24.298 13.502-2.399 4.886-3.599 11.059-3.599 18.512z" />
<glyph unicode="&#xe92d;" glyph-name="size-4" d="M621.524 784.457l108.69 62.757 110.336-63.707v-127.415l0.11-0.183 110.343-63.707v-127.415l-108.544-62.669 1.36-0.79v-127.408l-110.336-63.707-0.11-0.19v-127.408l-110.343-63.707-108.485 62.632-108.485-62.632-110.336 63.707v127.247l-110.204 63.62v126.354l-1.887-1.090-110.343 63.707v127.415l109.685 63.327-1.156 0.666v127.415l110.343 63.707 110.329-63.7v2.224l110.343 63.707zM230.444 483.825c0-19.712 7.073-35.211 21.219-46.482 14.139-11.271 33.558-16.903 58.244-16.903 24.166 0 42.876 5.72 56.115 17.167 13.246 11.44 19.866 25.819 19.866 43.132 0 16.889-5.654 29.784-16.969 38.7-7.285 5.742-18.088 10.328-32.402 13.758l-32.658 7.841c-12.595 2.999-20.824 5.617-24.686 7.841-5.998 3.343-8.997 8.404-8.997 15.177 0 7.365 3.043 13.115 9.128 17.225 6.085 4.118 14.226 6.173 24.43 6.173 9.172 0 16.845-1.587 23.011-4.762 9.26-4.798 14.234-12.895 14.914-24.298h38.064c-0.688 20.144-8.082 35.511-22.184 46.095-14.095 10.584-31.13 15.879-51.105 15.879-23.91 0-42.043-5.617-54.389-16.845-12.339-11.227-18.512-25.329-18.512-42.299 0-18.6 6.385-32.271 19.156-41.011 7.548-5.23 21.175-10.072 40.887-14.533l20.056-4.498c11.747-2.575 20.363-5.53 25.849-8.872 5.486-3.43 8.229-8.272 8.229-14.526 0-10.715-5.53-18.044-16.589-21.987-5.829-2.055-13.414-3.087-22.755-3.087-15.601 0-26.617 3.899-33.046 11.703-3.511 4.286-5.873 10.752-7.073 19.412zM412.116 425.326h39.344v189.513h-39.344zM474.99 425.326h147.471v33.426h-99.387l99.131 124.328v31.759h-144.772v-33.558h95.4l-97.843-122.529zM789.343 614.839h-138.979v-189.513h143.609v34.070h-104.909v48.728h92.050v32.914h-92.050v40.243h100.279zM576.622 230.795h-21.080v116.487h-41.143l-68.528-113.145v-32.015h73.794v-40.112h35.877v40.112h21.080zM472.993 230.795l46.672 80.486v-80.486z" />
<glyph unicode="&#xe933;" glyph-name="size-half" d="M906.832 180.48l-394.693-227.869-394.686 227.869v455.753l394.686 227.869 394.693-227.869zM512.139 830.325l-365.429-210.988v-421.961l365.429-210.988 365.436 210.988v421.961zM268.383 496.772c1.2-8.66 3.562-15.133 7.073-19.419 6.429-7.797 17.445-11.696 33.046-11.696 9.34 0 16.925 1.024 22.755 3.079 11.059 3.95 16.589 11.271 16.589 21.987 0 6.261-2.743 11.103-8.229 14.533-5.486 3.343-14.102 6.298-25.849 8.872l-20.056 4.498c-19.712 4.454-33.339 9.296-40.887 14.526-12.771 8.741-19.156 22.418-19.156 41.019 0 16.969 6.173 31.071 18.52 42.299 12.339 11.227 30.471 16.837 54.382 16.837 19.975 0 37.010-5.288 51.105-15.872 14.102-10.591 21.497-25.951 22.184-46.095h-38.056c-0.688 11.396-5.661 19.5-14.921 24.298-6.166 3.174-13.839 4.754-23.011 4.754-10.203 0-18.344-2.055-24.43-6.166-6.085-4.118-9.128-9.86-9.128-17.232 0-6.773 2.999-11.827 9.004-15.17 3.855-2.231 12.083-4.842 24.686-7.841l32.651-7.841c14.314-3.43 25.117-8.016 32.402-13.758 11.315-8.916 16.969-21.819 16.969-38.7 0-17.32-6.619-31.693-19.858-43.14-13.246-11.44-31.956-17.167-56.123-17.167-24.686 0-44.105 5.639-58.244 16.911-14.146 11.271-21.219 26.763-21.219 46.482h37.8zM412.255 627.785h39.344v-189.513h-39.344v189.513zM475.129 471.698l97.843 122.529h-95.4v33.558h144.772v-31.759l-99.131-124.328h99.387v-33.434h-147.471v33.434zM789.489 594.227h-100.286v-40.243h92.058v-32.914h-92.058v-48.728h104.909v-34.077h-143.609v189.52h138.986v-33.558zM347.524 303.528v24.942c11.571 0.512 19.668 1.287 24.298 2.311 7.373 1.631 13.371 4.886 18 9.772 3.174 3.343 5.573 7.797 7.197 13.371 0.944 3.343 1.419 5.829 1.419 7.461h30.471v-186.434h-37.544v128.578h-43.842zM534.718 370.256h30.471l-73.669-195.306h-30.215l73.413 195.306zM557.093 174.95c0.344 13.378 3.218 25.593 8.616 36.645 5.23 12.427 17.569 25.585 37.025 39.475 16.889 12.083 27.816 20.743 32.79 25.966 7.629 8.148 11.44 17.064 11.44 26.748 0 7.885-2.187 14.438-6.554 19.668-4.374 5.23-10.628 7.841-18.776 7.841-11.14 0-18.725-4.155-22.755-12.471-2.311-4.798-3.686-12.427-4.118-22.886h-35.613c0.6 15.857 3.474 28.672 8.616 38.444 9.772 18.6 27.129 27.904 52.070 27.904 19.719 0 35.401-5.464 47.060-16.391 11.659-10.935 17.481-25.395 17.481-43.396 0-13.802-4.111-26.061-12.339-36.769-5.398-7.117-14.27-15.045-26.617-23.786l-14.658-10.416c-9.172-6.517-15.448-11.227-18.834-14.146-3.387-2.911-6.232-6.298-8.55-10.152h81.386v-32.278h-127.671z" />
<glyph unicode="&#xe934;" glyph-name="structure" d="M512.032 837.572l389.603-389.603-389.603-389.603-389.603 389.603zM512.032 154.863l293.106 293.106-293.106 293.106-293.106-293.106zM512.032 652.833l-34.187-34.187v-341.354l34.187-34.058 34.058 34.058v341.354zM716.767 447.968l-34.058 34.187h-341.354l-34.187-34.187 34.187-34.058h341.354z" />
<glyph unicode="&#xe935;" glyph-name="system" d="M580.277 789.323l-61.15-61.15-51.345 51.216-48.12-48.249 51.087-51.216-71.083-71.212-51.216 51.345-48.507-48.507 51.345-51.216-71.212-71.212-51.087 51.216-48.378-48.12 51.216-51.216-61.15-61.279v-34.058l238.922-239.051h34.187l61.15 61.279 51.087-51.087 48.378 48.12-51.216 51.216 71.341 71.212 51.087-51.087 48.249 47.991-51.216 51.345 71.212 71.212 51.216-51.216 48.249 48.378-51.216 51.087 61.279 61.15v34.187l-239.051 238.922zM580.277 618.646l102.432-102.432-238.922-238.922-102.432 102.432z" />
<glyph unicode="&#xe936;" glyph-name="threat" d="M 3.969 2.397 L 4.566 2.994 L 5.444 2.116 L 5.102 1.774 L 5.476 1.4 L 6.534 2.458 L 6.16 2.832 L 5.818 2.49 L 4.94 3.368 L 5.541 3.969 L 4.941 4.569 L 5.818 5.446 L 6.16 5.104 L 6.534 5.478 L 5.476 6.537 L 5.102 6.163 L 5.444 5.82 L 4.567 4.943 L 3.969 5.541 L 3.37 4.942 L 2.491 5.821 L 2.833 6.163 L 2.459 6.537 L 1.401 5.479 L 1.775 5.105 L 2.117 5.447 L 2.996 4.568 L 2.397 3.969 L 2.996 3.37 L 2.117 2.491 L 1.775 2.833 L 1.401 2.459 L 2.459 1.4 L 2.833 1.774 L 2.491 2.117 L 3.37 2.996 Z M 3.969 5.043 L 5.043 3.969 L 3.969 2.895 L 2.895 3.969 Z" />
<glyph unicode="&#xe93e;" glyph-name="weaponmod" d="M816.748 518.665l-78.050-78.179-33.8 33.8-34.574-13.933-24.124-24.124 43.992-44.121-122.428-122.428-43.992 44.121-24.124-24.124-14.578-34.316 34.445-34.058-78.179-78.179 48.378-48.249 375.412 375.412zM328.97 153.186l-170.677 170.677 102.432 102.303 68.245 34.187 170.677 170.677 34.187 68.245 102.303 102.432 170.677-170.677-102.303-102.432-68.374-34.058-170.677-170.677-34.058-68.245zM286.622 566.283l107.095 107.095 47.618-47.618-107.095-107.095-47.618 47.618z" />
<glyph unicode="&#xe93f;" glyph-name="trait" d="M512.032 789.323l-118.3-68.245 34.187-59.086 84.113 48.507 84.113-48.507 34.058 59.086zM334.646 686.891l-118.3-68.245v-136.49h68.374v97.143l84.113 48.636zM689.288 686.891l-34.058-58.957 84.113-48.636v-97.143h68.245v136.49zM216.346 413.91v-136.619l118.3-68.245 34.187 59.086-84.113 48.636v97.143zM739.343 413.91v-97.143l-84.113-48.636 34.058-59.086 118.3 68.245v136.619zM427.919 234.074l-34.187-59.086 118.3-68.374 118.171 68.374-34.058 59.086-84.113-48.636zM512.032 584.588l118.171-68.374v-136.49l-118.171-68.245-118.3 68.245v136.49z" />
<glyph unicode="&#xe940;" glyph-name="weapon" d="M853.386 755.265l-217.249-72.502v-96.498l-397.215-397.215v-48.249h48.249l397.215 397.215h96.498zM170.677 755.265l72.373-217.249h96.498l80.114-79.985 48.249 48.249-79.985 79.985v96.498zM604.401 369.79l-48.249-48.249 180.611-180.74h48.249v48.249z" />
<glyph unicode="&#xe941;" glyph-name="blast" d="M887.573 447.968c0-101.271-43.992-199.446-110.044-265.498s-164.227-110.044-265.498-110.044c-101.271 0-199.446 43.992-265.498 110.044s-110.044 164.227-110.044 265.498c0 101.271 43.992 199.446 110.044 265.498s164.227 110.044 265.498 110.044c101.271 0 199.446-43.992 265.498-110.044s110.044-164.227 110.044-265.498zM729.281 665.217c-57.537 57.408-129.911 89.918-217.249 89.918s-159.712-32.51-217.249-89.918c-57.408-57.537-89.918-129.911-89.918-217.249s32.51-159.712 89.918-217.249c57.537-57.408 129.911-89.918 217.249-89.918s159.712 32.51 217.249 89.918c57.408 57.537 89.918 129.911 89.918 217.249s-32.51 159.712-89.918 217.249zM476.942 504.99v136.619h68.374v-136.619zM476.942 254.457v136.619h68.374v-136.619zM318.456 481.833h136.619v-68.374h-136.619zM568.86 481.833h136.619v-68.374h-136.619z" />
<glyph unicode="&#xe942;" glyph-name="rank-1" d="M510 18l-326.6 168v692h657.2v-692zM215.4 205.48l294.6-151.48 298.6 151.52v640.48h-593.2zM508.52 271.68l-189.32 97.38v-100l189.080-97.24 196.54 99.78v99.8z" />
<glyph unicode="&#xe943;" glyph-name="rank-2" d="M510 18l-326.6 168v692h657.2v-692zM215.4 205.48l294.6-151.48 298.6 151.52v640.48h-593.2v-640.52zM508.26 337l196.54 99.78v99.8l-196.28-99.64-189.32 97.38v-100zM508.52 271.68l-189.32 97.38v-100l189.080-97.24 196.54 99.78v99.8z" />
<glyph unicode="&#xe944;" glyph-name="rank-3" d="M510 18l-326.6 168v692h657.2v-692zM215.4 205.48l294.6-151.48 298.6 151.52v640.48h-593.2v-640.52zM590.62 542.16l-29 92 77.6 57.46-96.54 0.86-30.68 91.64-30.66-91.56-96.54-0.86 77.6-57.46-29-92 78.62 56zM508.26 337l196.54 99.78v99.8l-196.28-99.64-189.32 97.38v-100zM508.52 271.68l-189.32 97.38v-100l189.080-97.24 196.54 99.78v99.8z" />
<glyph unicode="&#xe945;" glyph-name="nested-hexagons" d="M512 916.96l-406.132-234.48v-468.96l406.132-234.48 406.132 234.48v468.96l-406.132 234.48zM512 875.394l370.132-213.7v-427.39l-370.132-213.7-370.132 213.702v427.39l370.132 213.7zM512 813.534l-316.56-182.764v-365.54l316.56-182.766 316.56 182.766v365.54l-316.56 182.766zM512 771.968l280.56-161.984v-323.968l-280.56-161.984-280.56 161.984v323.968l280.56 161.984zM512 710.108l-226.996-131.054v-262.108l226.996-131.056 226.996 131.056v262.108l-226.996 131.056zM512 668.542l190.996-110.27v-220.54l-190.996-110.272-190.996 110.27v220.54l190.996 110.27zM512 606.686l-137.426-79.34v-158.688l137.426-79.342 137.426 79.34v158.688l-137.426 79.34zM512 565.12l101.426-58.56v-117.12l-101.426-58.56-101.426 58.56v117.12l101.426 58.56zM512 503.26l-47.856-27.632v-55.256l47.856-27.632 47.856 27.632v55.256l-47.856 27.632z" />
<glyph unicode="&#xe946;" glyph-name="orbit" d="M498.568 907.936c-122.127-3.67-231.738-54.391-311.899-134.559l-0.001-0.001c-83.207-83.27-134.666-198.272-134.666-325.293 0-254.169 206.045-460.214 460.214-460.214 72.636 0 141.342 16.827 202.431 46.797l-2.711-1.201c11.058-12.345 27.047-20.077 44.843-20.077 33.202 0 60.118 26.916 60.118 60.118 0 9.134-2.037 17.793-5.682 25.546l0.155-0.368c8.882 7.64 17.52 15.646 25.904 24.016 83.224 82.79 134.728 197.396 134.728 324.030 0 0.472-0.001 0.943-0.002 1.415v-0.073c0 0.009 0 0.020 0 0.031 0 254.066-205.962 460.028-460.028 460.028-4.713 0-9.41-0.071-14.090-0.212l0.686 0.016zM514.572 878.156c235.782-1.999 426.148-193.6 426.148-429.664 0-118.503-47.973-225.802-125.557-303.535l0.007 0.007c-7.528-7.458-15.344-14.698-23.399-21.67l-0.595-0.504c-9.552 6.684-21.413 10.68-34.207 10.68-33.202 0-60.118-26.916-60.118-60.118 0-4.15 0.42-8.201 1.221-12.114l-0.066 0.387c-54.636-27.010-118.957-42.811-186.969-42.811-237.305 0-429.678 192.373-429.678 429.678s192.373 429.678 429.678 429.678c1.243 0 2.485-0.005 3.725-0.016l-0.19 0.001zM498.668 752.732c-81.975-3.692-154.998-39.205-207.554-94.389l-0.118-0.125v-13.416h49.706l15.7-32.608 40.548 9.152 51.012 3.914 53.572-26.16 27.488-27.578-17.052-23.48-53.572-10.458 27.39-38.524 9.318-14.534-24.944-36.454-37.924 10.668-32.608-13.324-11.76-24.248h-51.012l-20.732 25.948v47.078l-38.126 4.89-19.612-40.32-6.546-51.968 17-41.926 32.61-36.614 14.586-45.77-13.28-15.7-45.93 14.14c55.374-83.294 148.826-137.445 254.925-137.445 168.52 0 305.132 136.612 305.132 305.132 0 30.521-4.481 59.996-12.821 87.802l0.556-2.16-23.156-67.734-111.104-101.578-22.314 29.558 48.68 89.98-1.514 54.432-47.166-31.302-14.372 54.596 61.56 127.458h2.844c-50.913 39.522-115.719 63.359-186.093 63.359-4.684 0-9.343-0.106-13.975-0.314l0.658 0.024zM562.84 410.55l37.268-8.832 11.902-58.23-59.44-55.716-9.154-99.762-38.852-23.034-26.226 60.302-58.628 33.474-26.532 74.162 25.25 55.672 144.412 21.964z" />
<glyph unicode="&#xe947;" glyph-name="orbital" d="M512.5 918.688c-65.56 0-128.060-13.58-184.876-38-16.364 21.236-41.988 34.936-70.874 34.936-49.432 0-89.56-40.066-89.56-89.5 0-16.712 4.648-32.36 12.62-45.748-85.276-85.31-138.186-202.98-138.186-332.564 0-259.234 211.646-469.44 470.876-469.44 259.23 0.004 469.44 210.206 469.44 469.44 0 259.236-210.21 470.876-469.44 470.876zM512.5 880.062c239.030 0 432.188-193.214 432.188-432.248s-193.16-432.188-432.188-432.188c-239.030 0-433.626 193.154-433.626 432.188 0 119.136 48.352 226.876 126.44 305 14.546-10.226 32.3-16.188 51.436-16.188 49.432 0 89.5 40.068 89.5 89.5 0 6.906-0.77 13.608-2.25 20.064 51.82 21.81 108.792 33.87 168.5 33.87zM512.25 776.442c-182.6 0-331.75-149.15-331.75-331.752 0-182.6 149.152-330.812 331.75-330.812 70.24 0 135.416 21.93 189 59.312 14.26-8.46 30.9-13.312 48.688-13.312 52.792 0 95.62 42.768 95.62 95.56 0 25.526-10.010 48.732-26.31 65.876 15.354 38.134 23.812 79.768 23.812 123.376 0 182.6-148.212 331.75-330.81 331.75zM512.25 738.19c162.4 0 293.56-131.1 293.56-293.5 0-35.666-6.344-69.848-17.934-101.44-11.62 5.026-24.474 7.814-37.94 7.814-52.792 0-95.56-42.828-95.56-95.62 0-21.18 6.908-40.724 18.56-56.566-46.13-30.168-101.32-47.686-160.686-47.686-162.4 0-294.44 131.1-294.44 293.5s132.040 293.5 294.44 293.5zM510.124 698.94c-14.924-63.98-43.534-124.224-85.812-166.5-42.28-42.28-97.46-65.826-161.44-80.752 63.98-14.924 124.224-43.472 166.5-85.75 42.28-42.28 65.828-97.528 80.752-161.5 14.926 63.972 38.408 119.22 80.688 161.5 42.28 42.276 102.524 70.824 166.5 85.748-64.472 14.856-118.91 38.22-161.44 80.75-42.524 42.526-70.892 102.026-85.746 166.5zM510.312 525.812c40.996 0 74.25-33.254 74.25-74.25 0-40.992-33.252-74.248-74.248-74.248-40.994 0-74.25 33.256-74.25 74.25 0 41 33.26 74.252 74.252 74.252z" />
<glyph unicode="&#xe948;" glyph-name="large-beam" d="M35.214 928.964v-145.8l416.46-380.164-221.854 47.148 289.726-228.524c3.14 30.336 28.772 54 59.94 54 33.284 0 60.272-26.98 60.272-60.268 0-33.28-26.98-60.27-60.272-60.27-21.672 0-40.668 11.444-51.288 28.62l-210.16 5.856 313.334-143.614-249.5-45.7 86.244-30.492h242.072c1.924 11.204 4.332 22.248 7.194 33.11-26.78 8.432-46.21 33.46-46.21 63.030 0 36.488 29.58 66.074 66.080 66.074 12.532 0 24.254-3.492 34.24-9.554 11.86 17.71 25 34.32 39.22 49.62-9.664 8.48-16.808 19.76-20.14 32.588-7.92-6.714-18.164-10.772-29.36-10.772-25.086 0-45.426 20.334-45.426 45.426 0 25.086 20.334 45.426 45.424 45.426 17.526 0 32.73-9.93 40.306-24.47 11.9 15.85 30.852 26.106 52.2 26.106 25.828 0 48.15-15.008 58.726-36.78 24.256 12.336 49.58 21.45 75.37 26.85v134.586l-15.27 130.926-76.104-210.2-77.976 329.316-57.346-223.38-186.080 321.156 20.5-239.636-396.786 409.786h-163.538zM571.394 446.070c17.366 0 32.066-11.406 37.024-27.136 10.692 9.184 24.584 14.746 39.788 14.746 33.75 0 61.12-27.36 61.12-61.12 0-33.75-27.36-61.12-61.12-61.12-33.488 0-60.674 26.94-61.1 60.334-4.806-2.132-10.116-3.34-15.714-3.34-21.436 0-38.816 17.38-38.816 38.82 0 21.436 17.372 38.816 38.814 38.816zM795.894 395.902c21.44 0 38.82-17.376 38.82-38.82 0-21.434-17.38-38.814-38.82-38.814-21.436 0-38.816 17.374-38.816 38.816 0 21.44 17.372 38.82 38.814 38.82z" />
<glyph unicode="&#xe949;" glyph-name="ammo" d="M324.644 924.114l-56.632-211.364 36.106-9.676 8.388 31.308 339.528-90.974 22.56 84.176-339.744 90.21 9.676 36.104 339.74-90.206 8.076 30.132-339.534 90.976 7.94 29.64-36.104 9.674zM722.672 762.6l-28.906-107.886c107.98-27.94 205.972-41.18 301.9-21.928-74.2 65.296-164.906 100.068-272.994 129.812zM257.352 670l-83.64-202.208 34.54-14.284 12.432 30.046 324.816-134.354 32.72 79.112-324.86 134.24 14.284 34.54 324.864-134.236 12.508 30.24-324.812 134.36 11.686 28.26-34.54 14.284zM630.988 458.1l-42.688-103.21c103.434-41.744 198.87-67.62 296.48-61.004-65.076 74.392-150.488 120.664-253.792 164.212zM154.214 427.866l-109.41-189.504 32.372-18.692 16.266 28.172 304.46-175.786 40.944 70.904-304.87 175.1 18.688 32.366 304.868-175.090 18.234 31.58-304.466 175.79 15.286 26.476-32.372 18.688zM496.92 168.812l-55.84-96.726c97.052-54.92 188.26-93.064 285.884-99.294-54.76 82.264-133.356 139.324-230.040 196.020z" />
<glyph unicode="&#xe94a;" glyph-name="burning" d="M61.872 913.336c-1.94-200.824 20.74-384.26 201.514-462.128 219.62-94.606 93.766-237.7-116.492-166.004 152.22-130.444 291.33-283.304 401.856-319.97 13.56-5.99 28.52-9.348 44.24-9.348 22.808 0 44.046 7.016 61.67 18.99 63.1-17.088 118.13-22.69 164.8-18.46 39.88 0.39 76.824 13.352 107.048 35.112 99.972 66.98 110.92 219.66 23.43 402.68 3.146 17.13 2.154 33.994-2.308 50.644-3.946 19.012-12.454 36.39-24.304 50.952-57.94 85.53-194.716 166.36-319.16 249.012 155.58-198.41 134.428-286.2 21.27-188.468 2.18 15.248-2.45 30.348-12.206 46.356-3.6 6.8-8.064 13.080-13.25 18.686-35.976 45.14-104.44 99.7-174.040 184.156 76.112-372.3-195.66-166.64-364.072 107.79zM535.58 612.328c28.064 0 50.416-22.352 50.416-50.42 0-28.064-22.35-50.416-50.42-50.416-28.064 0-50.416 22.352-50.416 50.42 0 28.064 22.35 50.416 50.42 50.416zM830.73 502.66c45.512 0 82.008-36.496 82.008-82.008s-36.496-82.008-82.010-82.008c-10.29 0-20.112 1.884-29.164 5.3-1.492 38.784-21.28 73.024-50.952 94.32 7.994 36.956 40.656 64.396 80.116 64.396zM679.83 423.714c46.88 0 84.48-37.604 84.48-84.484s-37.6-84.484-84.48-84.484-84.486 37.604-84.486 84.484c0 46.88 37.6 84.484 84.484 84.484zM817.602 292.786c82.792 0 149.51-66.72 149.51-149.508 0-82.794-66.714-149.51-149.508-149.51-46.794 0-88.44 21.324-115.82 54.808 0.916 5.7 1.408 11.544 1.408 17.5 0 31.628-13.504 60.226-35.012 80.366 0.536 25.926 7.608 50.184 19.656 71.22 46.326 3.036 85.744 32.184 103.606 72.806 8.494 1.492 17.226 2.314 26.16 2.314zM526.542 271.606c25.252 0 45.324-20.076 45.324-45.328 0-25.256-20.070-45.326-45.324-45.326s-45.326 20.070-45.326 45.324c0 25.25 20.070 45.326 45.326 45.326zM592.994 138.906c40.44 0 72.828-32.388 72.828-72.828 0-40.444-32.384-72.826-72.828-72.826-40.44 0-72.824 32.384-72.824 72.824s32.38 72.826 72.824 72.826z" />
<glyph unicode="&#xe94b;" glyph-name="balance" d="M642.75 929.374l-117.31-117.186 51.56-13.812-31.126-116.126c-10.88 1.512-21.74 2.28-32.5 2.25-1.774-0.006-3.54-0.080-5.312-0.126l43.94-91.5 84.5 56.814c-12.526 7.74-25.888 14.41-40.060 19.75l30.934 115.436 57.314-15.314-41.94 159.814zM266.5 879.874l-0.188-165.812 46.25 26.69 60.128-104.126c-10.068-7.648-19.5-16.144-28.25-25.374l100.12-32.876 18.128 100.314c-15.594-3.554-30.744-8.672-45.188-15.25l-59.75 103.436 51.376 29.624-142.626 83.376zM777.060 698.688l26.69-46.188-104.126-60.126c-7.6 10.004-16.020 19.414-25.186 28.126l-32.252-96.312 98.56-17.876c-3.488 14.188-8.296 27.98-14.31 41.188l103.434 59.75 29.626-51.312 83.376 142.62-165.814 0.128zM195.5 621.688l-159.812-41.94 117.124-117.31 13.812 51.562 116.126-31.126c-1.87-13.534-2.5-26.996-2-40.312l95.060 45.628-59.686 86.5c-8.044-12.864-14.932-26.62-20.436-41.25l-115.56 30.936 15.372 57.312zM747.25 459.128l-90.25-44.754 56.626-84.25c6.3 10.4 11.874 21.346 16.56 32.874l115.876-31.060-13.81-51.566 160.126 43.064-117.44 116.184-15.374-57.312-115.184 30.876c2.54 15.412 3.414 30.774 2.874 45.94zM286.69 398.562c3-12.88 7.032-25.44 12.12-37.56l-104.186-60.188-26.684 46.186-82.752-143.626 165.188 0.876-29.626 51.312 103.56 59.816c9.31-13.040 19.96-25.114 31.814-36.064l34.564 99.060-104 20.19zM588 326.5l-18.44-102.060c11.82 2.908 23.346 6.694 34.5 11.372l60.19-104.188-46.25-26.684 143.688-82.816-0.876 165.25-51.374-29.686-59.752 103.5c12.874 9.176 24.86 19.694 35.688 31.374l-97.374 33.938zM480.5 312l-88.25-60.060c10.64-6.524 21.91-12.254 33.75-17.066l-31.060-115.874-51.564 13.812 43.060-160.124 116.19 117.44-57.25 15.372 30.874 115.25c16.59-2.734 33.152-3.632 49.44-2.812l-45.19 94.062z" />
<glyph unicode="&#xe94c;" glyph-name="reticule" d="M530.44 920.624v-115.5c182.066-9.12 328.286-155.372 337.434-337.436h115.5c-9.27 246.24-206.69 443.7-452.936 452.94zM493.060 920.564c-245.72-9.864-443.626-207.052-452.934-452.878h116.754c9.12 181.648 154.692 327.654 336.18 337.374v115.5zM512.44 706.124c-64.46 0-123.536-23.58-168.816-62.624l44.94-44.94c24.612 20.492 54.408 34.974 87.124 41.252l37.56-141.060 37.5 140.748c31.774-6.364 60.74-20.464 84.814-40.312l44.69 44.688c-44.93 38.82-103.564 62.25-167.812 62.25zM706.688 617.438l-44.688-44.69c19.992-24.272 34.144-53.54 40.44-85.626l-140.19-37.374 140.25-37.312c-6.3-32.494-20.62-62.224-40.876-86.88l44.688-44.684c39.026 45.274 62.624 104.308 62.626 168.75 0 64.248-23.432 122.88-62.252 167.812zM317.188 617.124c-38.956-44.892-62.56-103.394-62.56-167.5 0-64.3 23.77-123.2 62.934-168.44l45.064 45.064c-19.866 24.404-33.92 53.732-40.186 85.75l141.872 37.75-141.812 37.812c6.272 31.62 20.196 60.47 39.812 84.5l-45.124 45.064zM40.188 430.31c9.9-245.33 207.548-442.974 452.872-452.87v116.68c-181.088 9.704-326.42 155.094-336.12 336.188h-116.754zM867.812 430.31c-9.724-181.51-155.7-327.15-337.372-336.25v-116.684c245.848 9.276 443.014 207.192 452.872 452.936h-115.5zM513.252 400.81l-37.94-142.56c-32.416 6.376-61.99 20.91-86.44 41.374l-44.872-44.874c45.236-39.164 104.144-62.94 168.44-62.94 64.1 0 122.608 23.606 167.5 62.566l-44.69 44.686c-23.91-19.828-52.592-33.96-84.060-40.434l-37.94 142.186z" />
<glyph unicode="&#xe94d;" glyph-name="spikes" d="M512 928c-11.436-102.932-48.408-187.994-65.626-249.374-17.792-5.050-34.772-11.836-50.624-20.626-55.606 31.29-142.26 64.68-223.126 129.376 64.696-80.868 98.086-167.52 129.376-223.126-8.79-15.852-15.576-32.832-20.626-50.624-61.38-17.22-146.44-54.19-249.374-65.626 102.932-11.436 187.994-48.408 249.374-65.624 5.050-17.794 11.836-34.774 20.626-50.626-31.29-55.604-64.68-142.256-129.376-223.124 80.868 64.694 167.52 98.084 223.126 129.374 15.852-8.79 32.832-15.576 50.624-20.624 17.22-61.38 54.19-146.44 65.626-249.376 11.436 102.934 48.408 187.996 65.624 249.376 17.794 5.048 34.774 11.834 50.626 20.624 55.604-31.29 142.256-64.68 223.124-129.374-64.694 80.868-98.084 167.52-129.374 223.124 8.79 15.852 15.576 32.832 20.624 50.626 61.38 17.216 146.44 54.188 249.376 65.624-102.934 11.436-187.996 48.408-249.376 65.626-5.048 17.792-11.834 34.772-20.624 50.624 31.29 55.606 64.68 142.26 129.374 223.126-80.868-64.696-167.52-98.086-223.124-129.376-15.852 8.79-32.832 15.576-50.626 20.626-17.216 61.38-54.188 146.44-65.624 249.374zM512 568c33.14 0 63.596-12.972 85.314-34.686 21.716-21.714 34.686-52.174 34.686-85.314s-12.972-63.596-34.686-85.314c-21.72-21.716-52.174-34.686-85.314-34.686s-63.6 12.972-85.314 34.686c-21.72 21.72-34.686 52.174-34.686 85.314s12.972 63.6 34.686 85.314c21.714 21.72 52.174 34.686 85.314 34.686z" />
<glyph unicode="&#xe94e;" glyph-name="eclipse" d="M318.364 925.77l29.764-258.966-92.268 50.606 74.92-145.828c37.284 54.008 99.596 89.404 170.188 89.404 114.14 0 206.668-92.524 206.668-206.664 0-61.544-26.908-116.796-69.594-154.656l135.836-58.808-52.516 120.54 275.66 31.568-253.008 89.3 163.706 107.16h-187.52l210.008 333.104-260.608-214.050-5.956 145.852-139.9-169.664-38.7 169.668-44.646-136.92-122.038 208.352zM49.88 676.4l97.24-108.708 143.45-51.594-103.176 116.474-137.514 43.828zM294.34 450.96l-99.052-55.026 87.38-9.368-152.914-190.36 181 96.744-165.404-321.44 249.66 255.9 12.484-143.55 53.726 167.624c-94.060 18.326-165.3 100.432-166.88 199.476zM606.21 276.434c-24.21-14.356-51.6-23.904-80.866-27.344l150.16-272.328-69.294 299.674zM499.9 212.1h-0.006l-22.914-119.744 38.474-121.48 25.066 127.624-40.62 113.6zM762.86 185.2l69.026-96.78 104.906-24.982-65.192 90.196-108.74 31.566z" />
<glyph unicode="&#xe94f;" glyph-name="sword-array" d="M404.188 903c-18.25 0-32.688-14.38-32.688-32.626 0-18.244 14.436-32.624 32.688-32.624 7.854 0 14.976 2.674 20.56 7.16l117.68-42.788-21.84-60.050 35.126-12.774 9.66 26.552 319.774-116.27 103.816 19.896-65.468 81.8-320.984 116.704 9.652 26.548-35.124 12.772-21.84-60.054-120.106 43.672c-4.308 12.94-16.36 22.080-30.906 22.080zM589.738 822.856l248.034-90.184 21.87-26.954-29.86-6.244-251.642 91.498 11.6 31.884zM326.81 761c-18.25 0-32.624-14.38-32.624-32.626 0-18.244 14.372-32.686 32.624-32.686 3.68 0 7.194 0.61 10.474 1.7l-0.606-0.864 105.6-73.892-36.64-52.35 30.626-21.428 16.2 23.148 278.78-195.066 105.43-7.644-42.066 95.952-279.84 195.8 16.2 23.148-30.62 21.43-36.64-52.36-104.374 73.030c0.040 0.692 0.1 1.38 0.1 2.086 0 18.252-14.372 32.624-32.624 32.624zM221.37 633c-18.246 0-32.684-14.38-32.684-32.626 0-18.244 14.434-32.624 32.688-32.624 1.85 0 3.646 0.184 5.406 0.468l73.98-88.1-48.944-41.092 24.036-28.63 21.64 18.166 219.628-261.55 99.274-33.476-16.87 104.346-218.8 260.57 21.636 18.16-24.032 28.628-48.94-41.088-75.92 90.4c0.33 1.89 0.532 3.828 0.532 5.82 0 18.256-14.372 32.628-32.626 32.628zM493.342 630.42l214.434-150.040 14.016-31.412-30.776 1.728-217.126 151.928 19.45 27.794zM85.624 545.12c-18.248 0-32.624-14.38-32.624-32.624 0-15.654 10.594-28.476 25.126-31.812l48.166-103.204-57.912-27.020 15.808-33.866 25.608 11.948 144.44-309.48 87.232-58.028 10.716 105.16-143.9 308.308 25.594 11.946-15.806 33.87-57.91-27.024-47.206 101.14c3.38 5.16 5.352 11.35 5.352 18.068 0 18.252-14.434 32.626-32.686 32.626zM352.104 474.41l168.208-200.324 5.22-32.76-30.414 10.010-169 201.26 25.98 21.814zM174.414 358.69l109.684-235-3.526-33.826-26.114 17.092-110.796 237.388 30.75 14.348z" />
<glyph unicode="&#xe950;" glyph-name="marker" d="M512 896l-448-384h256l192 160 192-160h256l-448 384zM512 544l-104-78h-344v-36h344l104-78 104 78h344v36h-344l-104 78zM64 384l448-384 448 384h-256l-192-160-192 160h-256z" />
<glyph unicode="&#xe951;" glyph-name="barrage" d="M38.020 922.92v-68.18l525.984-525.98c14.64-14.64 28.38-19.012 40.9-18.604 12.524 0.408 24.492 6.194 33.51 15.484 18.034 18.58 24.82 47.26-2.726 74.806l-522.48 522.474h-75.188zM851.74 523.648c-17.33 0.17-35.49-1.916-54.020-6.016l18.56-34.42c12.026 2.12 23.476 3.18 34.216 3.128 30.746-0.148 55.82-9.1 73.020-26.3 27.52-27.52 33.93-75.2 16.934-134.004-1.144-3.954-2.4-7.948-3.754-11.974l-44.25 104.784-18.090-134.528-67.020 92.45-3.128-117.88-75.75 36.62c23.064 29.44 39.46 60.432 48.052 90.154 11.78 40.756 8.986 81.65-17.5 108.136-16.554 16.556-38.74 23.856-62.996 24.126-14.556 0.164-29.86-2.206-45.14-6.624-16.846-4.868-34.094-12.27-51.244-21.936l27.654-27.652c11.696 5.952 23.14 10.56 33.964 13.69 12.388 3.58 23.614 5.248 33.52 5.226 16.51-0.040 29.356-4.788 37.82-13.25 13.54-13.54 17.572-38.306 8.024-71.34-9.55-33.036-32.636-71.804-66.954-106.12-34.32-34.32-73.090-57.406-106.124-66.956-33.036-9.548-57.796-5.52-71.336 8.024-13.54 13.54-17.572 38.3-8.024 71.336 3.23 11.18 8.048 23.020 14.288 35.12l-27.624 27.62c-9.98-17.516-17.588-35.154-22.56-52.364-11.784-40.76-8.994-81.65 17.494-108.14 26.486-26.484 67.38-29.274 108.136-17.494 29.448 8.514 60.144 24.69 89.344 47.42l38.684-80.016-125.436-3.324 92.454-67.026-134.52-18.090 100.51-42.446c-0.454-0.136-0.912-0.28-1.364-0.412-58.8-16.996-106.49-10.584-134.008 16.934-23.206 23.206-31.4 60.754-23.208 107.212l-34.396 18.544c-13.188-59.66-5.5-115.514 31.172-152.184 40.468-40.468 104.29-45.644 170.816-26.414 66.528 19.226 138.294 62.9 201.896 126.5 63.6 63.6 107.27 135.37 126.5 201.896 19.228 66.526 14.056 130.35-26.41 170.816-25.292 25.292-59.712 36.8-98.208 37.176z" />
</font></defs></svg>